Thu Jun 20 12:15:13 EDT 2019
Py:Athena            INFO including file "AthenaCommon/Preparation.py"
Py:Athena            INFO using release [?-21.0.0] [i686-slc5-gcc43-dbg] [?/?] -- built on [?]
Py:Athena            INFO including file "AthenaCommon/Atlas.UnixStandardJob.py"
Py:Athena            INFO executing ROOT6Setup
Py:Athena            INFO including file "AthenaCommon/Execution.py"
Py:Athena            INFO including file "TrkVertexSeedFinderTools/ImagingSeedFinder_test.py"
Py:Athena            INFO including file "TrkVertexSeedFinderTools/VertexSeedFinderTestCommon.py"
SetGeometryVersion.py obtained major release version 21
Py:Athena            INFO including file "IdDictDetDescrCnv/IdDictDetDescrCnv_joboptions.py"
Py:ConfigurableDb    INFO Read module info for 4901 configurables from 2 genConfDb files
Py:ConfigurableDb    INFO No duplicates have been found: that's good !
EventInfoMgtInit: Got release version  sss-22.0.0
Py:IOVDbSvc.CondDB    INFO Setting up conditions DB access to instance OFLP200
Py:ConfiguredFactory    INFO imported 91 confDb modules in 0.03 seconds
Py:Athena            INFO Importing MagFieldServices.SetupField
Py:Athena            INFO Importing MagFieldServices.MagFieldServicesConfig
[ TrackingGeometrySvc ]     base material tag :  AtlasLayerMat_v21_
[ TrackingGeometrySvc ]     translated to COOL:  /GLOBAL/TrackingGeo/LayerMaterialV2<tag>TagInfoMajor/AtlasLayerMat_v21_/GeoAtlas</tag>
Py:Athena            INFO including file "AthenaCommon/runbatch.py"
# setting LC_ALL to "C"
ApplicationMgr       INFO Updating Gaudi::PluginService::SetDebug(level) to level= 'PluginDebugLevel':0
ApplicationMgr       INFO Updating Gaudi::PluginService::SetDebug(level) to level= 'PluginDebugLevel':0
ApplicationMgr    SUCCESS 
====================================================================================================================================
                                                   Welcome to ApplicationMgr (GaudiCoreSvc v27r1p99)
                                          running on karma on Thu Jun 20 12:15:17 2019
====================================================================================================================================
ApplicationMgr       INFO Application Manager Configured successfully
ApplicationMgr       INFO Updating Gaudi::PluginService::SetDebug(level) to level= 'PluginDebugLevel':0
StatusCodeSvc        INFO initialize
AthDictLoaderSvc     INFO in initialize...
AthDictLoaderSvc     INFO acquired Dso-registry
ClassIDSvc           INFO  getRegistryEntries: read 3892 CLIDRegistry entries for module ALL
CoreDumpSvc          INFO install f-a-t-a-l handler... (flag = -1)
CoreDumpSvc          INFO Handling signals: 11(Segmentation fault) 7(Bus error) 4(Illegal instruction) 8(Floating point exception) 
MetaDataSvc          INFO Initializing MetaDataSvc - package version AthenaServices-00-00-00
AthenaPoolCnvSvc     INFO Initializing AthenaPoolCnvSvc - package version AthenaPoolCnvSvc-00-00-00
PoolSvc              INFO io_register[PoolSvc](xmlcatalog_file:PoolFileCatalog.xml) [ok]
PoolSvc              INFO Set connectionsvc retry/timeout/IDLE timeout to  'ConnectionRetrialPeriod':300/ 'ConnectionRetrialTimeOut':3600/ 'ConnectionTimeOut':5 seconds with connection cleanup disabled
PoolSvc              INFO Frontier compression level set to 5
DBReplicaSvc         INFO Read replica configuration from /home/sss/atlas/rootaccess/build/share/dbreplica.config
DBReplicaSvc         INFO No specific match for domain found - use default fallback
DBReplicaSvc         INFO Total of 1 servers found for host karma [atlas_dd ]
PoolSvc              INFO Successfully setup replica sorting algorithm
PoolSvc              INFO Setting up APR FileCatalog and Streams
PoolSvc              INFO Resolved path (via DATAPATH) is /home/sss/atlas/DBRelease/current/poolcond/PoolCat_oflcond.xml
PoolSvc              INFO Resolved path (via DATAPATH) is /home/sss/atlas/DBRelease/current/poolcond/PoolCat_oflcond.xml
PoolSvc              INFO Resolved path (via ATLAS_POOLCOND_PATH) is /home/sss/atlas/DBRelease/poolcond/PoolFileCatalog.xml
PoolSvc              INFO POOL WriteCatalog is xmlcatalog_file:PoolFileCatalog.xml
DbSession            INFO     Open     DbSession    
Domain[ROOT_All]     INFO >   Access   DbDomain     READ      [ROOT_All] 
MetaDataSvc          INFO Found MetaDataTools = PublicToolHandleArray([])
IOVDbSvc             INFO Opened read transaction for POOL PersistencySvc
IOVDbSvc             INFO Only 5 POOL conditions files will be open at once
IOVDbSvc             INFO Global tag: OFLCOND-RUN12-SDR-35 set from joboptions
IOVDbFolder          INFO Read from meta data only for folder /TagInfo
IOVDbFolder          INFO Inputfile tag override disabled for /GLOBAL/BField/Maps
IOVDbSvc             INFO Folder /GLOBAL/BField/Maps will be written to file metadata
IOVDbSvc             INFO Initialised with 5 connections and 12 folders
IOVDbSvc             INFO Service IOVDbSvc initialised successfully
IOVDbSvc             INFO preLoadAddresses: Removing folder /TagInfo. It should only be in the file meta data and was not found.
IOVDbSvc             INFO Opening COOL connection for COOLOFL_TRT/OFLP200
IOVSvc               INFO No IOVSvcTool associated with store "StoreGateSvc"
IOVSvcTool           INFO IOVRanges will be checked at every Event
IOVDbSvc             INFO Opening COOL connection for COOLOFL_INDET/OFLP200
IOVDbSvc             INFO Disconnecting from COOLOFL_TRT/OFLP200
IOVDbSvc             INFO Opening COOL connection for COOLOFL_GLOBAL/OFLP200
IOVDbSvc             INFO Disconnecting from COOLOFL_INDET/OFLP200
IOVDbSvc             INFO Opening COOL connection for COOLOFL_DCS/OFLP200
IOVDbSvc             INFO Disconnecting from COOLOFL_GLOBAL/OFLP200
IOVDbSvc             INFO Disconnecting from COOLOFL_DCS/OFLP200
IOVDbSvc             INFO Added taginfo remove for /EXT/DCS/MAGNETS/SENSORDATA
IOVDbSvc             INFO Added taginfo remove for /GLOBAL/BField/Maps
IOVDbSvc             INFO Added taginfo remove for /GLOBAL/TrackingGeo/LayerMaterialV2
IOVDbSvc             INFO Added taginfo remove for /Indet/Align
IOVDbSvc             INFO Added taginfo remove for /Indet/IBLDist
IOVDbSvc             INFO Added taginfo remove for /Indet/PixelDist
IOVDbSvc             INFO Added taginfo remove for /TRT/Align
IOVDbSvc             INFO Added taginfo remove for /TRT/Calib/DX
IOVDbSvc             INFO Added taginfo remove for /TRT/Cond/Status
IOVDbSvc             INFO Added taginfo remove for /TRT/Cond/StatusHT
IOVDbSvc             INFO Added taginfo remove for /TRT/Cond/StatusPermanent
ClassIDSvc           INFO  getRegistryEntries: read 2043 CLIDRegistry entries for module ALL
ClassIDSvc           INFO  getRegistryEntries: read 27 CLIDRegistry entries for module ALL
ClassIDSvc           INFO  getRegistryEntries: read 36 CLIDRegistry entries for module ALL
DetDescrCnvSvc       INFO  initializing 
DetDescrCnvSvc       INFO Found DetectorStore service
DetDescrCnvSvc       INFO  filling proxies for detector managers 
DetDescrCnvSvc       INFO  filling address for CaloTTMgr with CLID 117659265 and storage type 68 to detector store 
DetDescrCnvSvc       INFO  filling address for CaloMgr with CLID 4548337 and storage type 68 to detector store 
DetDescrCnvSvc       INFO  filling address for CaloSuperCellMgr with CLID 241807251 and storage type 68 to detector store 
DetDescrCnvSvc       INFO  filling address for CaloIdManager with CLID 125856940 and storage type 68 to detector store 
DetDescrCnvSvc       INFO  filling address for LArIdManager with CLID 79554919 and storage type 68 to detector store 
DetDescrCnvSvc       INFO  filling address for IdDict with CLID 2411 and storage type 68 to detector store 
DetDescrCnvSvc       INFO  filling address for AtlasID with CLID 164875623 and storage type 68 to detector store 
DetDescrCnvSvc       INFO  filling address for PixelID with CLID 2516 and storage type 68 to detector store 
DetDescrCnvSvc       INFO  filling address for SCT_ID with CLID 2517 and storage type 68 to detector store 
DetDescrCnvSvc       INFO  filling address for TRT_ID with CLID 2518 and storage type 68 to detector store 
DetDescrCnvSvc       INFO  filling address for SiliconID with CLID 129452393 and storage type 68 to detector store 
DetDescrCnvSvc       INFO  filling address for LArEM_ID with CLID 163583365 and storage type 68 to detector store 
DetDescrCnvSvc       INFO  filling address for LArEM_SuperCell_ID with CLID 99488227 and storage type 68 to detector store 
DetDescrCnvSvc       INFO  filling address for LArHEC_ID with CLID 3870484 and storage type 68 to detector store 
DetDescrCnvSvc       INFO  filling address for LArHEC_SuperCell_ID with CLID 254277678 and storage type 68 to detector store 
DetDescrCnvSvc       INFO  filling address for LArFCAL_ID with CLID 45738051 and storage type 68 to detector store 
DetDescrCnvSvc       INFO  filling address for LArFCAL_SuperCell_ID with CLID 12829437 and storage type 68 to detector store 
DetDescrCnvSvc       INFO  filling address for LArMiniFCAL_ID with CLID 79264204 and storage type 68 to detector store 
DetDescrCnvSvc       INFO  filling address for LArOnlineID with CLID 158698068 and storage type 68 to detector store 
DetDescrCnvSvc       INFO  filling address for TTOnlineID with CLID 38321944 and storage type 68 to detector store 
DetDescrCnvSvc       INFO  filling address for LArOnline_SuperCellID with CLID 115600394 and storage type 68 to detector store 
DetDescrCnvSvc       INFO  filling address for LArHVLineID with CLID 27863673 and storage type 68 to detector store 
DetDescrCnvSvc       INFO  filling address for LArElectrodeID with CLID 80757351 and storage type 68 to detector store 
DetDescrCnvSvc       INFO  filling address for TileID with CLID 2901 and storage type 68 to detector store 
DetDescrCnvSvc       INFO  filling address for Tile_SuperCell_ID with CLID 49557789 and storage type 68 to detector store 
DetDescrCnvSvc       INFO  filling address for TileHWID with CLID 2902 and storage type 68 to detector store 
DetDescrCnvSvc       INFO  filling address for TileTBID with CLID 2903 and storage type 68 to detector store 
DetDescrCnvSvc       INFO  filling address for MDTIDHELPER with CLID 4170 and storage type 68 to detector store 
DetDescrCnvSvc       INFO  filling address for CSCIDHELPER with CLID 4171 and storage type 68 to detector store 
DetDescrCnvSvc       INFO  filling address for RPCIDHELPER with CLID 4172 and storage type 68 to detector store 
DetDescrCnvSvc       INFO  filling address for TGCIDHELPER with CLID 4173 and storage type 68 to detector store 
DetDescrCnvSvc       INFO  filling address for STGCIDHELPER with CLID 4174 and storage type 68 to detector store 
DetDescrCnvSvc       INFO  filling address for MMIDHELPER with CLID 4175 and storage type 68 to detector store 
DetDescrCnvSvc       INFO  filling address for CaloLVL1_ID with CLID 108133391 and storage type 68 to detector store 
DetDescrCnvSvc       INFO  filling address for CaloCell_ID with CLID 123500438 and storage type 68 to detector store 
DetDescrCnvSvc       INFO  filling address for CaloCell_SuperCell_ID with CLID 128365736 and storage type 68 to detector store 
DetDescrCnvSvc       INFO  filling address for CaloDM_ID with CLID 167756483 and storage type 68 to detector store 
DetDescrCnvSvc       INFO  filling address for ZdcID with CLID 190591643 and storage type 68 to detector store 
GeoModelSvc::RD...WARNING  Getting PixTBMatComponents with default tag
GeoModelSvc::RD...WARNING  Getting PixTBMaterials with default tag
GeoModelSvc::RD...WARNING  Getting InDetMatComponents with default tag
GeoModelSvc::RD...WARNING  Getting InDetMaterials with default tag
IBLParameterSvc      INFO IBL geometry
EventPersistenc...   INFO Added successfully Conversion service:DetDescrCnvSvc
PixelIDDetDescrCnv   INFO in createObj: creating a PixelID helper object in the detector store
IdDictDetDescrCnv    INFO in initialize
IdDictDetDescrCnv    INFO in createObj: creating a IdDictManager object in the detector store
IdDictDetDescrCnv    INFO IdDictName:  IdDictParser/ATLAS_IDS.xml
IdDictDetDescrCnv    INFO Reading InnerDetector    IdDict file InDetIdDictFiles/IdDictInnerDetector_IBL3D25-03.xml
IdDictDetDescrCnv    INFO Reading LArCalorimeter   IdDict file IdDictParser/IdDictLArCalorimeter_DC3-05-Comm-01.xml
IdDictDetDescrCnv    INFO Reading TileCalorimeter  IdDict file IdDictParser/IdDictTileCalorimeter.xml
IdDictDetDescrCnv    INFO Reading Calorimeter      IdDict file IdDictParser/IdDictCalorimeter_L1Onl.xml
IdDictDetDescrCnv    INFO Reading MuonSpectrometer IdDict file IdDictParser/IdDictMuonSpectrometer_R.03.xml
IdDictDetDescrCnv    INFO Reading ForwardDetectors IdDict file IdDictParser/IdDictForwardDetectors_2010.xml
IdDictDetDescrCnv    INFO Found id dicts:
IdDictDetDescrCnv    INFO Using dictionary tag: null
IdDictDetDescrCnv    INFO Dictionary ATLAS                version default              DetDescr tag (using default) file 
IdDictDetDescrCnv    INFO Dictionary Calorimeter          version default              DetDescr tag CaloIdentifier-LVL1-02 file IdDictParser/IdDictCalorimeter_L1Onl.xml
IdDictDetDescrCnv    INFO Dictionary ForwardDetectors     version default              DetDescr tag ForDetIdentifier-01       file IdDictParser/IdDictForwardDetectors_2010.xml
IdDictDetDescrCnv    INFO Dictionary InnerDetector        version IBL-DBM              DetDescr tag InDetIdentifier-IBL3D25-02 file InDetIdDictFiles/IdDictInnerDetector_IBL3D25-03.xml
IdDictDetDescrCnv    INFO Dictionary LArCalorimeter       version fullAtlas            DetDescr tag LArIdentifier-DC3-05-Comm file IdDictParser/IdDictLArCalorimeter_DC3-05-Comm-01.xml
IdDictDetDescrCnv    INFO Dictionary LArElectrode         version fullAtlas            DetDescr tag (using default) file 
IdDictDetDescrCnv    INFO Dictionary LArHighVoltage       version fullAtlas            DetDescr tag (using default) file 
IdDictDetDescrCnv    INFO Dictionary MuonSpectrometer     version R.03                 DetDescr tag MuonIdentifier-08         file IdDictParser/IdDictMuonSpectrometer_R.03.xml
IdDictDetDescrCnv    INFO Dictionary TileCalorimeter      version fullAtlasAndTestBeam DetDescr tag TileIdentifier-00         file IdDictParser/IdDictTileCalorimeter.xml
PixelID              INFO Initialize from dictionary
AtlasDetectorID      INFO initialize_from_dictionary - OK
indet 1 2,4,5,7,10,11,12,13 7 1fffffffffffffff 61 3 0 min/max 2 13 values  2 4 5 7 10 11 12 13 indexes  0 0 1 2 0 3 0 0 4 5 6 7 indices  8 prev  0 next  0 mode  enumerated  cont mode  none  
pixel 1 1:3 3 e7ffffffffffffff 59 2 3 min/max 1 3 values  indexes  indices  3 prev  0 next  0 mode  both_bounded  cont mode  none  
bec 1 -4,-2,0,2,4 7 f8ffffffffffffff 56 3 5 min/max -4 4 values  -4 -2 0 2 4 indexes  0 0 1 0 2 0 3 0 4 indices  5 prev  0 next  0 mode  enumerated  cont mode  none  
bec_shift 0 0 0 0 0 0 0 min/max 0 0 values  indexes  indices  0 prev  0 next  0 mode  both_bounded  cont mode  none  
lay_disk 0 0:3 3 ff3fffffffffffff 54 2 8 min/max 0 3 values  indexes  indices  4 prev  0 next  0 mode  both_bounded  cont mode  none  
lay_disk_shift 0 0 0 0 0 0 0 min/max 0 0 values  indexes  indices  0 prev  0 next  0 mode  both_bounded  cont mode  none  
phi_mod 0 0:63 3f ffc0ffffffffffff 48 6 10 min/max 0 63 values  indexes  indices  64 prev  0 next  0 mode  both_bounded  cont mode  none  
phi_mod_shift 0 0 0 0 0 0 0 min/max 0 0 values  indexes  indices  0 prev  0 next  0 mode  both_bounded  cont mode  none  
eta_mod 1 -10:9 1f ffff07ffffffffff 43 5 16 min/max -10 9 values  indexes  indices  20 prev  0 next  0 mode  both_bounded  cont mode  none  
eta_mod_shift 0 0 0 0 0 0 0 min/max 0 0 values  indexes  indices  0 prev  0 next  0 mode  both_bounded  cont mode  none  
phi_index 0 0:376 1ff fffff803ffffffff 34 9 21 min/max 0 376 values  indexes  indices  377 prev  0 next  0 mode  both_bounded  cont mode  none  
eta_index 0 0:335 1ff fffffffc01ffffff 25 9 30 min/max 0 335 values  indexes  indices  336 prev  0 next  0 mode  both_bounded  cont mode  none  
bec_eta_mod 0 0 0 0 0 0 0 min/max 0 0 values  indexes  indices  0 prev  0 next  0 mode  both_bounded  cont mode  none  
PixelID::initLevelsFromDict - found levels 
subdet        0
part          1
barrel_endcap 2
layer or disk 3
phi_module    4
eta_module    5
phi_index     6
eta_index     7
InDetGeometryDBSvc   INFO GeometryDBSvc Initialized
PixelGeoModel        INFO Retrieving Record Sets from database ...
PixelGeoModel        INFO Key = ATLAS-R2-2016-01-00-01 Node = ATLAS
PixelGeoModel        INFO ... Record Sets retrieved.
PixelGeoModel        INFO DBM switch = SetDBMFlag: 1
PixelGeoModel        INFO Building Pixel Detector
PixelGeoModel        INFO  Version: Pixel-IBL3D25-33, Name: IBL, Layout: IBL, Code Version: 5.01.00, Description: IBL_Geometry
GEOPIXELSERVICES pixel : 28.995 245 //  3460
GEOPIXELSERVICES barrel : 28.997 143 //  -460 460
GEOPIXELSERVICES endcap : 82 175 //  484 670
PixelGeoModel        INFO Build detailed stave support description :  layout 5
PixelGeoModel        INFO Si3D/SiPl radial shift : -0.015
PixelGeoModel        INFO Module thicknesses :  SiPl P/N 0.31 0.44 20.86  SiPl P/N 0.31 1.72 20.86  //  0.325 1.705
PixelGeoModel        INFO Pixel modules 12 -> planar/3D : 12 8
PixelGeoModel        INFO Module length/gap : 41.3 / 20.45 0.205  -> Stave length : 748
PixelGeoModel        INFO    planar/3D/endblock/NonActive lengths : 497.855 165.24 69.8 7.5525
PixelGeoModel        INFO Flex thickness (max) : 0.45 computed for 16 modules 
PixelGeoModel        INFO  Omega MidStaveCenterX  = 1.55
PixelGeoModel        INFO  Omega MidStaveAngle  = 0.296706
PixelGeoModel        INFO  Omega MidStaveRadius  = 1.655
PixelGeoModel        INFO  Omega EndStaveCenterX  = -1.25
PixelGeoModel        INFO  Omega EndStaveCenterY  = 7.45
PixelGeoModel        INFO  Omega EndStaveAngle  = 2.35619
PixelGeoModel        INFO  Omega EndStaveRadius  = 2.155
PixelGeoModel        INFO  Omega Thickness  = 0.145
PixelGeoModel        INFO  MechanicalStaveWidth  = 18.8
PixelGeoModel        INFO  MechanicalStaveLength = 748
PixelGeoModel        INFO  MechanicalStaveOffset = -0.95
PixelGeoModel        INFO  StaveModuleOffset     = 0.01
PixelGeoModel        INFO  MechanicalStaveEndBlockLength = 34.9
PixelGeoModel        INFO  FacePlateThick  = 0.215
PixelGeoModel        INFO  TubeOuterDiam   = 1.75
PixelGeoModel        INFO  TubeInnerDiam   = 1.5
PixelGeoModel        INFO  TubeMiddlePos   = 1.3
PixelGeoModel        INFO  FlexBaseThick   = 0.45
PixelGeoModel        INFO  FlexLayerThick  = 0.02
PixelGeoModel        INFO  FlexWidth       = 11.5
PixelGeoModel        INFO  FlexOffset      = 0.6
PixelGeoModel        INFO  XOffset / ladder = 0.01
PixelGeoModel        INFO ** OMEGA : with Stycast 0.1
PixelGeoModel        INFO ***> new material : OmegaGlue_IBL 3.31517
PixelGeoModel        INFO  ** FacePlate : with Stycast 0.1  grease : 0.07
PixelGeoModel        INFO ***> new material : FacePlateGlue_IBL 3.31517
PixelGeoModel        INFO ** FacePlate : with grease
Warning in material PDMS. Mass fractions sum to 0.9999; renormalizing to 1.0
PixelGeoModel        INFO ***> new material : FacePlateGlueGrease_IBL 3.04977
PixelGeoModel        INFO Flex angle : 0.296641  Flex pos. in Z : (2.60312,4.19227,22.9025) 0.45 / (2.60312,4.19227,62.2575) 0.45 / (2.60312,4.19227,103.762) 0.45 / (2.60312,4.19227,145.267) 0.45 / (2.60312,4.19227,186.772) 0.45 / (2.60312,4.19227,228.277) 0.45 / (2.60312,4.19227,269.782) 0.45 / (2.60312,4.19227,314.817) 0.45 / 
PixelGeoModel        INFO ** TUBE : with Stycast 0.1  diam 0.875 0.75
PixelGeoModel        INFO ***> new material : CoolingPipeGlue_IBL 6.72585
PixelGeoModel        INFO IBL EOS : mechanical stave length : 374
PixelGeoModel        INFO IBL EOS :            service Zpos : 366.552
PixelGeoModel        INFO IBL EOS :           endblock Zpos : 356.552
PixelGeoModel        INFO IBL EOS :         endblock length : 34.896
PixelGeoModel        INFO IBL EOS :     endblock srv length : 20
PixelGeoModel        INFO Flex half thickness srv : 0.45
PixelGeoModel        INFO  stave xoffset = 0.32
PixelGeoModel        INFO  stave yoffset = -0.95
PixelGeoModel        INFO Stave envelop length : 748 ->  339.101
PixelGeoModel        INFO *** LAYER 0  planar/3D modules : 12 8
PixelGeoModel        INFO Layer IBL / stave ring :  outer radius max  42.001
Warning in material IBLSMDwbplannar_Base. Mass fractions sum to 1.001; renormalizing to 1.0
PixelGeoModel        INFO Layer 0 in/out radius 29.7573  42.001
PixelGeoModel        INFO IBL stave ring support
PixelGeoModel        INFO Build IBL stave ring services
PixelGeoModel        INFO Build detailed stave ring support : Brl0A_StaveRing  AC
PixelGeoModel        INFO Build detailed stave ring support - logVol : Brl0A_StaveRing
PixelGeoModel        INFO Build detailed stave ring support : Brl0C_StaveRing  AC
PixelGeoModel        INFO Build detailed stave ring support - logVol : Brl0C_StaveRing
PixelGeoModel        INFO Build detailed stave ring support : Brl0M_StaveRing  Mid
PixelGeoModel        INFO Build detailed stave ring support - logVol : Brl0M_StaveRing
PixelGeoModel        INFO Build IBL I-Flex services
PixelGeoModel        INFO *** LAYER 1  planar/3D modules : 0 0
PixelGeoModel        INFO Layer 1 in/out radius 46.2723  64.1329
PixelGeoModel        INFO *** LAYER 2  planar/3D modules : 0 0
PixelGeoModel        INFO Layer 2 in/out radius 83.7078  102.132
PixelGeoModel        INFO *** LAYER 3  planar/3D modules : 0 0
PixelGeoModel        INFO Layer 3 in/out radius 117.51  136.132
Warning in material IBL_Fwd_Cooling_Base4. Mass fractions sum to 1.02; renormalizing to 1.0
Warning in material CabCoolEcD3. Mass fractions sum to 0.9999; renormalizing to 1.0
PixelGeoModel        INFO Build IBL I-Flex services
PixelGeoModel        INFO Build IBL I-Flex services
PixelGeoModel        INFO Build IBL I-Flex services
PixelGeoModel        INFO Build IBL fwd services - CAD tool design / S. model1 : 0/0
PixelDetectorMa...   INFO Registering alignment channel with key /Indet/Align/ID, level 2, with frame global.
PixelDetectorMa...   INFO Registering alignment channel with key /Indet/Align/PIX, level 1, with frame global.
PixelDetectorMa...   INFO Registering alignment channel with key /Indet/Align/PIXB1, level 0, with frame local.
PixelDetectorMa...   INFO Registering alignment channel with key /Indet/Align/PIXB2, level 0, with frame local.
PixelDetectorMa...   INFO Registering alignment channel with key /Indet/Align/PIXB3, level 0, with frame local.
PixelDetectorMa...   INFO Registering alignment channel with key /Indet/Align/PIXB4, level 0, with frame local.
PixelDetectorMa...   INFO Registering alignment channel with key /Indet/Align/PIXEA1, level 0, with frame local.
PixelDetectorMa...   INFO Registering alignment channel with key /Indet/Align/PIXEA2, level 0, with frame local.
PixelDetectorMa...   INFO Registering alignment channel with key /Indet/Align/PIXEA3, level 0, with frame local.
PixelDetectorMa...   INFO Registering alignment channel with key /Indet/Align/PIXEC1, level 0, with frame local.
PixelDetectorMa...   INFO Registering alignment channel with key /Indet/Align/PIXEC2, level 0, with frame local.
PixelDetectorMa...   INFO Registering alignment channel with key /Indet/Align/PIXEC3, level 0, with frame local.
PixelGeoModel        INFO Doing consistency checks.
PixelGeoModel        INFO Number of barrel elements       : 1736
PixelGeoModel        INFO Number of endcap elements       : 288
PixelGeoModel        INFO Number of endcap elements (DBM) : 24
PixelGeoModel        INFO Total                           : 2048
PixelGeoModel        INFO MaxHash                         : 2048
SCT_IDDetDescrCnv    INFO in createObj: creating a SCT_ID helper object in the detector store
SCT_ID               INFO Initialize from dictionary
AtlasDetectorID      INFO initialize_from_dictionary - OK
indet 1 2,4,5,7,10,11,12,13 7 1fffffffffffffff 61 3 0
sct1 1:3 3 e7ffffffffffffff 59 2 3
bec1 -2,0,2 3 f9ffffffffffffff 57 2 5
lay_disk0 0:8 f fe1fffffffffffff 53 4 7
phi_mod0 0:55 3f ffe07fffffffffff 47 6 11
eta_mod1 -6:6 f ffff87ffffffffff 43 4 17
side0 0:1 1 fffffbffffffffff 42 1 21
strip0 0:767 3ff fffffc00ffffffff 32 10 22
SCT_ID               INFO  SCT_ID::initialize_from_dict 
SCT_GeoModel         INFO Retrieving Record Sets from database ...
SCT_GeoModel         INFO Building SCT Detector.
SCT_GeoModel         INFO  Version: SCT-GEO-00, Name: GEO, Layout: Final, Code Version: 3.06.00, Description: Atlas Geometry 2008
SCTDetectorManager   INFO Registering alignment channel with key /Indet/Align/ID, level 3, with frame global.
SCTDetectorManager   INFO Registering alignment channel with key /Indet/Align/SCT, level 2, with frame global.
SCTDetectorManager   INFO Registering alignment channel with key /Indet/Align/SCTB1, level 1, with frame local.
SCTDetectorManager   INFO Registering alignment channel with key /Indet/Align/SCTB2, level 1, with frame local.
SCTDetectorManager   INFO Registering alignment channel with key /Indet/Align/SCTB3, level 1, with frame local.
SCTDetectorManager   INFO Registering alignment channel with key /Indet/Align/SCTB4, level 1, with frame local.
SCTDetectorManager   INFO Registering alignment channel with key /Indet/Align/SCTEA1, level 1, with frame local.
SCTDetectorManager   INFO Registering alignment channel with key /Indet/Align/SCTEA2, level 1, with frame local.
SCTDetectorManager   INFO Registering alignment channel with key /Indet/Align/SCTEA3, level 1, with frame local.
SCTDetectorManager   INFO Registering alignment channel with key /Indet/Align/SCTEA4, level 1, with frame local.
SCTDetectorManager   INFO Registering alignment channel with key /Indet/Align/SCTEA5, level 1, with frame local.
SCTDetectorManager   INFO Registering alignment channel with key /Indet/Align/SCTEA6, level 1, with frame local.
SCTDetectorManager   INFO Registering alignment channel with key /Indet/Align/SCTEA7, level 1, with frame local.
SCTDetectorManager   INFO Registering alignment channel with key /Indet/Align/SCTEA8, level 1, with frame local.
SCTDetectorManager   INFO Registering alignment channel with key /Indet/Align/SCTEA9, level 1, with frame local.
SCTDetectorManager   INFO Registering alignment channel with key /Indet/Align/SCTEC1, level 1, with frame local.
SCTDetectorManager   INFO Registering alignment channel with key /Indet/Align/SCTEC2, level 1, with frame local.
SCTDetectorManager   INFO Registering alignment channel with key /Indet/Align/SCTEC3, level 1, with frame local.
SCTDetectorManager   INFO Registering alignment channel with key /Indet/Align/SCTEC4, level 1, with frame local.
SCTDetectorManager   INFO Registering alignment channel with key /Indet/Align/SCTEC5, level 1, with frame local.
SCTDetectorManager   INFO Registering alignment channel with key /Indet/Align/SCTEC6, level 1, with frame local.
SCTDetectorManager   INFO Registering alignment channel with key /Indet/Align/SCTEC7, level 1, with frame local.
SCTDetectorManager   INFO Registering alignment channel with key /Indet/Align/SCTEC8, level 1, with frame local.
SCTDetectorManager   INFO Registering alignment channel with key /Indet/Align/SCTEC9, level 1, with frame local.
TRT_GeoModel      WARNING The folder of /TRT/Cond/StatusHT is NOT available, WHOLE TRT RUNNING XENON
TRT_GeoModel      WARNING Tool setup will force to NOT to use ARGON. Ignore this warning if you are running RECONSTRUCTION or DIGI, but cross-check if you are running SIMULATION
TRT_GeoModel      WARNING Tool setup will force to NOT to use KRYPTON. Ignore this warning if you are running RECONSTRUCTION or DIGI, but cross-check if you are running SIMULATION
TRT_IDDetDescrCnv    INFO in createObj: creating a TRT_ID helper object in the detector store
TRT_ID               INFO Initialize from dictionary msgSvc 0x55c8338a3750
AtlasDetectorID      INFO initialize_from_dictionary - OK
TRT_GeoModel         INFO In TRT Detector Factory (For DC2 and later geometries)
TRT_GeoModel         INFO  Version: TRT-GEO-02, Name: DC3, Layout: Initial, Code Version: 4.01.01, Description: DC3 Geometry
TRTDetectorManager   INFO Registering alignment channel with key /TRT/Align/TRT, level 3, with frame global.
TRTDetectorManager   INFO Registering alignment channel with key /TRT/Align/B0, level 2, with frame global.
TRTDetectorManager   INFO Registering alignment channel with key /TRT/Align/B1, level 2, with frame global.
TRTDetectorManager   INFO Registering alignment channel with key /TRT/Align/B2, level 2, with frame global.
TRTDetectorManager   INFO Registering alignment channel with key /TRT/Align/L2A, level 1, with frame global.
TRTDetectorManager   INFO Registering alignment channel with key /TRT/Align/L2C, level 1, with frame global.
ClassIDSvc           INFO  getRegistryEntries: read 4601 CLIDRegistry entries for module ALL
AthenaEventLoopMgr   INFO Initializing AthenaEventLoopMgr - package version AthenaServices-00-00-00
ClassIDSvc           INFO  getRegistryEntries: read 981 CLIDRegistry entries for module ALL
ClassIDSvc           INFO  getRegistryEntries: read 4104 CLIDRegistry entries for module ALL
CondInputLoader      INFO Initializing CondInputLoader...
CondInputLoader      INFO Adding base classes:
  +  ( 'AlignableTransformContainer' , 'ConditionStore+/Indet/Align' )   ->
  +  ( 'AlignableTransformContainer' , 'ConditionStore+/TRT/Align' )   ->
  +  ( 'CondAttrListCollection' , 'ConditionStore+/EXT/DCS/MAGNETS/SENSORDATA' )   ->
  +  ( 'CondAttrListCollection' , 'ConditionStore+/Indet/IBLDist' )   ->
  +  ( 'TRTCond::StrawStatusMultChanContainer' , 'ConditionStore+/TRT/Cond/Status' )   ->
  +  ( 'TRTCond::StrawStatusMultChanContainer' , 'ConditionStore+/TRT/Cond/StatusHT' )   ->
  +  ( 'TRTCond::StrawStatusMultChanContainer' , 'ConditionStore+/TRT/Cond/StatusPermanent' )   ->
CondInputLoader      INFO Will create WriteCondHandle dependencies for the following DataObjects:
    +  ( 'AlignableTransformContainer' , 'ConditionStore+/Indet/Align' ) 
    +  ( 'AlignableTransformContainer' , 'ConditionStore+/TRT/Align' ) 
    +  ( 'CondAttrListCollection' , 'ConditionStore+/EXT/DCS/MAGNETS/SENSORDATA' ) 
    +  ( 'CondAttrListCollection' , 'ConditionStore+/Indet/IBLDist' ) 
    +  ( 'TRTCond::StrawStatusMultChanContainer' , 'ConditionStore+/TRT/Cond/Status' ) 
    +  ( 'TRTCond::StrawStatusMultChanContainer' , 'ConditionStore+/TRT/Cond/StatusHT' ) 
    +  ( 'TRTCond::StrawStatusMultChanContainer' , 'ConditionStore+/TRT/Cond/StatusPermanent' ) 
ClassIDSvc           INFO  getRegistryEntries: read 461 CLIDRegistry entries for module ALL
ClassIDSvc           INFO  getRegistryEntries: read 1067 CLIDRegistry entries for module ALL
xAODMaker::Even...   INFO Initializing - Package version: xAODEventInfoCnv-00-00-00
xAODMaker::Even...   INFO Initializing - Package version: xAODEventInfoCnv-00-00-00
xAODMaker::Even...WARNING Beam conditions service not available
xAODMaker::Even...WARNING Will not fill beam spot information into xAOD::EventInfo
testalg1            DEBUG Property update for OutputLevel : new value = 1
testalg1          VERBOSE ServiceLocatorHelper::service: found service EventDataSvc
testalg1          VERBOSE ServiceLocatorHelper::service: found service TimelineSvc
testalg1.Imagin...  DEBUG Property update for OutputLevel : new value = 1
testalg1.Imagin...   INFO ImagingSeedFinder initialization...
testalg1.Imagin...   INFO Initializing frequency space filter
testalg1.Imagin...   INFO Allocating memory to fftw - Histogram size : 32 , 32 , 2048
testalg1.Imagin...   INFO Setting up FFTW plans
testalg1.Imagin...   INFO Retrieved vertex cluster tool VertexImageMaker = PrivateToolHandle('Trk::VertexImageMaker/Trk::VertexImageMaker')
testalg1.Imagin...   INFO Initialize successful
testalg1.Imagin...   INFO Retrieved vertex cluster tool VertexCluster = PrivateToolHandle('Trk::SimpleVertexClusterFinder/Trk::SimpleVertexClusterFinder')
testalg1          VERBOSE ServiceLocatorHelper::service: found service AlgExecStateSvc
testalg1            DEBUG input handles: 0
testalg1            DEBUG output handles: 1
testalg1            DEBUG Adding private ToolHandle tool testalg1.ImagingSeedFinder (Trk::ImagingSeedFinder)
testalg1            DEBUG Data Deps for testalg1
  + INPUT   ( 'xAOD::EventInfo' , 'StoreGateSvc+EventInfo' ) 
  + OUTPUT IGNORED  ( 'McEventCollection' , '' ) 
HistogramPersis...WARNING Histograms saving not required.
ApplicationMgr       INFO Application Manager Initialized successfully
ClassIDSvc           INFO  getRegistryEntries: read 803 CLIDRegistry entries for module ALL
CondInputLoader      INFO created CondCont<AlignableTransformContainer> with key 'ConditionStore+/Indet/Align'
CondInputLoader      INFO created CondCont<AlignableTransformContainer> with key 'ConditionStore+/TRT/Align'
CondInputLoader      INFO created CondCont<CondAttrListCollection> with key 'ConditionStore+/EXT/DCS/MAGNETS/SENSORDATA'
CondInputLoader      INFO created CondCont<CondAttrListCollection> with key 'ConditionStore+/Indet/IBLDist'
CondInputLoader      INFO created CondCont<TRTCond::StrawStatusMultChanContainer> with key 'ConditionStore+/TRT/Cond/Status'
CondInputLoader      INFO created CondCont<TRTCond::StrawStatusMultChanContainer> with key 'ConditionStore+/TRT/Cond/StatusHT'
CondInputLoader      INFO created CondCont<TRTCond::StrawStatusMultChanContainer> with key 'ConditionStore+/TRT/Cond/StatusPermanent'
ApplicationMgr       INFO Application Manager Started successfully
AthenaEventLoopMgr   INFO   ===>>>  start of run 1    <<<===
EventPersistenc...   INFO Added successfully Conversion service:AthenaPoolCnvSvc
EventPersistenc...   INFO Added successfully Conversion service:TagInfoMgr
IOVDbSvc             INFO Opening COOL connection for COOLOFL_GLOBAL/OFLP200
IOVDbFolder          INFO HVS tag OFLCOND-RUN12-SDR-35 resolved to BFieldMap-Run1-14m-v01 for folder /GLOBAL/BField/Maps
IOVDbSvc             INFO Disconnecting from COOLOFL_GLOBAL/OFLP200
IOVDbSvc             INFO Opening COOL connection for COOLOFL_INDET/OFLP200
IOVDbFolder          INFO HVS tag OFLCOND-RUN12-SDR-35 resolved to InDetAlign_IOVDEP-03 for folder /Indet/Align
IOVDbFolder          INFO HVS tag OFLCOND-RUN12-SDR-35 resolved to IBLDist-NULL for folder /Indet/IBLDist
IOVDbFolder          INFO HVS tag OFLCOND-RUN12-SDR-35 resolved to InDetPixelDist-nominal for folder /Indet/PixelDist
IOVDbSvc             INFO Disconnecting from COOLOFL_INDET/OFLP200
IOVDbSvc             INFO Opening COOL connection for COOLOFL_TRT/OFLP200
IOVDbFolder          INFO HVS tag OFLCOND-RUN12-SDR-35 resolved to TRTAlign_Nominal2 for folder /TRT/Align
IOVDbFolder          INFO HVS tag OFLCOND-RUN12-SDR-35 resolved to TRTCalibDX_nominal for folder /TRT/Calib/DX
IOVDbFolder          INFO HVS tag OFLCOND-RUN12-SDR-35 resolved to TrtStrawStatus-R2-MC_based_on_data_00-01 for folder /TRT/Cond/Status
IOVDbFolder          INFO HVS tag OFLCOND-RUN12-SDR-35 resolved to TrtStrawStatusHT-R2-MC-run2-scenario1_02-00 for folder /TRT/Cond/StatusHT
IOVDbFolder          INFO HVS tag OFLCOND-RUN12-SDR-35 resolved to TrtStrawStatusPermCol-02 for folder /TRT/Cond/StatusPermanent
IOVDbSvc             INFO Disconnecting from COOLOFL_TRT/OFLP200
Domain[ROOT_All]     INFO ->  Access   DbDatabase   READ      [ROOT_All] D0709FD7-6A55-E011-925D-002481043EC0
Domain[ROOT_All]     INFO                           /home/sss/atlas/DBRelease/current/poolcond/cond09_mc.000029.gen.COND/cond09_mc.000029.gen.COND._0001.pool.root
RootDatabase.open    INFO /home/sss/atlas/DBRelease/current/poolcond/cond09_mc.000029.gen.COND/cond09_mc.000029.gen.COND._0001.pool.root File version:52600
PixelDetectorMa...WARNING Cannot set AlignableTransform for identifier  [2.1.0.0.0] at level 2
PixelDetectorMa...WARNING Subsequent WARNINGS will be printed at DEBUG level.
PixelDetectorMa...   INFO Processing IBLDist alignment container with key (/Indet/IBLDist) and alignment folder pointing to /Indet/Align
PixelDetectorMa...WARNING Invalid HashID for identifier [2.1.0.0.0]
PixelDetectorMa...WARNING No IBLDist corrections can be applied for invalid HashID's - exiting 
Domain[ROOT_All]     INFO ->  Access   DbDatabase   READ      [ROOT_All] D67CA215-C5CB-DF11-954C-000423DC2158
Domain[ROOT_All]     INFO                           /home/sss/atlas/DBRelease/current/poolcond/cond09_mc.000019.gen.COND/cond09_mc.000019.gen.COND._0010.pool.root
RootDatabase.open    INFO /home/sss/atlas/DBRelease/current/poolcond/cond09_mc.000019.gen.COND/cond09_mc.000019.gen.COND._0010.pool.root File version:52200
AthenaEventLoopMgr   INFO   ===>>>  start processing event #1, run #1 0 events processed so far  <<<===
Domain[ROOT_All]     INFO ->  Access   DbDatabase   READ      [ROOT_All] 0E3CF1E5-143D-DB11-92C7-000CF1DA62DD
Domain[ROOT_All]     INFO                           /home/sss/atlas/DBRelease/current/poolcond/oflcond.000002.conditions.simul.pool.v0000/oflcond.000002.conditions.simul.pool.v0000._0029.pool.root
Warning in <TClass::Init>: no dictionary for class DataHeader_p1 is available
Warning in <TClass::Init>: no dictionary for class DataHeaderElement_p1 is available
RootDatabase.open    INFO /home/sss/atlas/DBRelease/current/poolcond/oflcond.000002.conditions.simul.pool.v0000/oflcond.000002.conditions.simul.pool.v0000._0029.pool.root File version:51000
IOVDbSvc             INFO Opening COOL connection for COOLOFL_DCS/OFLP200
IOVDbFolder          INFO HVS tag OFLCOND-RUN12-SDR-35 resolved to ExtDCSMagnetsSensorData-001 for folder /EXT/DCS/MAGNETS/SENSORDATA
IOVDbSvc             INFO Disconnecting from COOLOFL_DCS/OFLP200
Domain[ROOT_All]     INFO ->  Access   DbDatabase   READ      [ROOT_All] AC64B64A-71FE-E011-83C1-001E4F3E59B1
Domain[ROOT_All]     INFO                           /home/sss/atlas/DBRelease/current/poolcond/cond09_mc.000037.gen.COND/cond09_mc.000037.gen.COND._0001.pool.root
RootDatabase.open    INFO /home/sss/atlas/DBRelease/current/poolcond/cond09_mc.000037.gen.COND/cond09_mc.000037.gen.COND._0001.pool.root File version:52800
Domain[ROOT_All]     INFO ->  Access   DbDatabase   READ      [ROOT_All] 564393DD-6BBF-E111-9C06-003048D3C892
Domain[ROOT_All]     INFO                           /home/sss/atlas/DBRelease/current/poolcond/cond09_mc.000045.gen.COND/cond09_mc.000045.gen.COND._0001.pool.root
RootDatabase.open    INFO /home/sss/atlas/DBRelease/current/poolcond/cond09_mc.000045.gen.COND/cond09_mc.000045.gen.COND._0001.pool.root File version:53005
/home/sss/atlas...   INFO Database being retired...
Domain[ROOT_All]     INFO ->  Deaccess DbDatabase   READ      [ROOT_All] D0709FD7-6A55-E011-925D-002481043EC0
/home/sss/atlas...   INFO Database being retired...
Domain[ROOT_All]     INFO ->  Deaccess DbDatabase   READ      [ROOT_All] D67CA215-C5CB-DF11-954C-000423DC2158
Domain[ROOT_All]     INFO ->  Access   DbDatabase   READ      [ROOT_All] C8AC86DB-EA4D-DF11-A891-001EC959A004
Domain[ROOT_All]     INFO                           /home/sss/atlas/DBRelease/current/poolcond/cond09_mc.000010.gen.COND/cond09_mc.000010.gen.COND._0001.pool.root
RootDatabase.open    INFO /home/sss/atlas/DBRelease/current/poolcond/cond09_mc.000010.gen.COND/cond09_mc.000010.gen.COND._0001.pool.root File version:52200
/home/sss/atlas...   INFO Database being retired...
Domain[ROOT_All]     INFO ->  Deaccess DbDatabase   READ      [ROOT_All] 0E3CF1E5-143D-DB11-92C7-000CF1DA62DD
TRTAlignCondAlg      INFO recorded new CDO TRTAlignmentStore with range {[0,l:0] - [INVALID]} into Conditions Store
SCT_AlignCondAlg     INFO recorded new CDO SCTAlignmentStore with range {[1,l:0] - [2,l:0]} into Conditions Store
SCT_DetectorEle...   INFO recorded new CDO SCT_DetectorElementCollection with range {[1,l:0] - [2,l:0]} with size of 8176 into Conditions Store
testalg1          VERBOSE execute
testalg1          VERBOSE testing 3
AthenaEventLoopMgr   INFO   ===>>>  done processing event #1, run #1 1 events processed so far  <<<===
AthenaEventLoopMgr   INFO   ===>>>  start processing event #2, run #1 1 events processed so far  <<<===
testalg1          VERBOSE execute
testalg1          VERBOSE testing 3
AthenaEventLoopMgr   INFO   ===>>>  done processing event #2, run #1 2 events processed so far  <<<===
/home/sss/atlas...   INFO Database being retired...
/home/sss/atlas...   INFO Database being retired...
/home/sss/atlas...   INFO Database being retired...
/home/sss/atlas...   INFO Database being retired...
Domain[ROOT_All]     INFO ->  Deaccess DbDatabase   READ      [ROOT_All] 564393DD-6BBF-E111-9C06-003048D3C892
/home/sss/atlas...   INFO Database being retired...
Domain[ROOT_All]     INFO ->  Deaccess DbDatabase   READ      [ROOT_All] AC64B64A-71FE-E011-83C1-001E4F3E59B1
/home/sss/atlas...   INFO Database being retired...
Domain[ROOT_All]     INFO ->  Deaccess DbDatabase   READ      [ROOT_All] C8AC86DB-EA4D-DF11-A891-001EC959A004
Domain[ROOT_All]     INFO >   Deaccess DbDomain     READ      [ROOT_All] 
ApplicationMgr       INFO Application Manager Stopped successfully
IncidentProcAlg1     INFO Finalize
CondInputLoader      INFO Finalizing CondInputLoader...
IncidentProcAlg2     INFO Finalize
IdDictDetDescrCnv    INFO in finalize
IOVDbFolder          INFO Folder /EXT/DCS/MAGNETS/SENSORDATA (AttrListColl) db-read 1/2 objs/chan/bytes 4/4/20 ((     0.07 ))s
IOVDbFolder          INFO Folder /GLOBAL/BField/Maps (AttrListColl) db-read 1/1 objs/chan/bytes 3/3/202 ((     0.07 ))s
IOVDbFolder          INFO Folder /GLOBAL/TrackingGeo/LayerMaterialV2 (PoolRef) db-read 1/0 objs/chan/bytes 1/1/231 ((     0.00 ))s
IOVDbFolder       WARNING Folder /GLOBAL/TrackingGeo/LayerMaterialV2 is requested but no data retrieved
IOVDbFolder          INFO Folder /Indet/Align (PoolRefColl) db-read 1/2 objs/chan/bytes 34/43/5440 ((     0.08 ))s
IOVDbFolder          INFO Folder /Indet/IBLDist (AttrListColl) db-read 1/2 objs/chan/bytes 14/14/280 ((     0.00 ))s
IOVDbFolder          INFO Folder /Indet/PixelDist (PoolRef) db-read 1/0 objs/chan/bytes 1/1/179 ((     0.00 ))s
IOVDbFolder       WARNING Folder /Indet/PixelDist is requested but no data retrieved
IOVDbFolder          INFO Folder /TRT/Align (PoolRefColl) db-read 1/1 objs/chan/bytes 32/32/5120 ((     0.07 ))s
IOVDbFolder          INFO Folder /TRT/Calib/DX (PoolRef) db-read 1/1 objs/chan/bytes 1/1/183 ((     0.00 ))s
IOVDbFolder          INFO Folder /TRT/Cond/Status (PoolRefColl) db-read 1/1 objs/chan/bytes 36/36/6552 ((     0.00 ))s
IOVDbFolder          INFO Folder /TRT/Cond/StatusHT (PoolRefColl) db-read 1/1 objs/chan/bytes 35/35/6370 ((     0.00 ))s
IOVDbFolder          INFO Folder /TRT/Cond/StatusPermanent (PoolRefColl) db-read 1/1 objs/chan/bytes 35/36/6370 ((     0.00 ))s
IOVDbSvc             INFO  bytes in ((      0.30 ))s
IOVDbSvc             INFO Connection sqlite://;schema=mycool.db;dbname=OFLP200 : nConnect: 0 nFolders: 0 ReadTime: ((     0.00 ))s
IOVDbSvc             INFO Connection COOLOFL_TRT/OFLP200 : nConnect: 2 nFolders: 5 ReadTime: ((     0.08 ))s
IOVDbSvc             INFO Connection COOLOFL_INDET/OFLP200 : nConnect: 2 nFolders: 3 ReadTime: ((     0.08 ))s
IOVDbSvc             INFO Connection COOLOFL_GLOBAL/OFLP200 : nConnect: 2 nFolders: 2 ReadTime: ((     0.07 ))s
IOVDbSvc             INFO Connection COOLOFL_DCS/OFLP200 : nConnect: 2 nFolders: 1 ReadTime: ((     0.07 ))s
AthDictLoaderSvc     INFO in finalize...
ToolSvc              INFO Removing all tools created by ToolSvc
testalg1.Imagin...   INFO Finalize successful
testalg1.Imagin...   INFO Finalize ImageingSeedFinder successful
*****Chrono*****     INFO ****************************************************************************************************
*****Chrono*****     INFO  The Final CPU consumption ( Chrono ) Table (ordered)
*****Chrono*****     INFO ****************************************************************************************************
cObjR_ALL            INFO Time User   : Tot=  260 [ms] Ave/Min/Max= 1.26(+-   16)/    0/  230 [ms] #=207
cObj_ALL             INFO Time User   : Tot=  280 [ms] Ave/Min/Max= 25.5(+- 68.1)/    0/  240 [ms] #= 11
ChronoStatSvc        INFO Time User   : Tot= 5.69  [s]                                             #=  1
*****Chrono*****     INFO ****************************************************************************************************
ChronoStatSvc.f...   INFO  Service finalized successfully 
ApplicationMgr       INFO Application Manager Finalized successfully
ApplicationMgr       INFO Application Manager Terminated successfully
Py:Athena            INFO leaving with code 0: "successful run"
